BEGIN
    NUMBER a, b, c, vysledek;
    PROCEDURE trojuhelnik {
        if a > b {
            if a > c {
                vysledek = a
            }
        }

        if b > a {
            if b > c {
                vysledek = b
            }
        }

        vysledek = c
    }
    a = 15
    b = 20
    c = 25
    exec trojuhelnik
    write vysledek
END